<?xml version="1.0" standalone="no"?>
<!DOCTYPE svg PUBLIC "-//W3C//DTD SVG 1.1//EN" "http://www.w3.org/Graphics/SVG/1.1/DTD/svg11.dtd" >
<!--
2021-1-23: Created with FontForge (http://fontforge.org)
-->
<svg xmlns="http://www.w3.org/2000/svg" xmlns:xlink="http://www.w3.org/1999/xlink" version="1.1">
<metadata>
Created by FontForge 20170731 at Sat Jan 23 15:41:00 2021
 By root

</metadata>
<defs>
<font id="Flaticon" horiz-adv-x="512" >
  <font-face 
    font-family="Flaticon"
    font-weight="400"
    font-stretch="normal"
    units-per-em="512"
    panose-1="2 0 5 3 0 0 0 0 0 0"
    ascent="448"
    descent="-64"
    bbox="-0.000607549 -64 512 448"
    underline-thickness="25.6"
    underline-position="-51.2"
    unicode-range="U+0020-F106"
  />
    <missing-glyph />
    <glyph glyph-name="space" unicode=" " horiz-adv-x="200" 
 />
    <glyph glyph-name="003-check" unicode="&#xf102;" 
d="M504.527 380.091c8.60938 -6.91895 9.98047 -19.5068 3.0625 -28.1182l-266.508 -331.683c-0.223633 -0.277344 -0.454102 -0.548828 -0.691406 -0.814453c-10.917 -12.1914 -25.9355 -19.2686 -42.2881 -19.9258
c-0.828125 -0.0341797 -1.6582 -0.0507812 -2.4834 -0.0507812c-15.4385 0 -30.0078 5.81152 -41.2686 16.5146l-148.19 142.048c-7.97461 7.64453 -8.24219 20.3047 -0.599609 28.2783c7.64453 7.97363 20.3037 8.24219 28.2783 0.599609l148.132 -141.991
c3.89453 -3.70117 9.06445 -5.65137 14.5234 -5.43164c5.30273 0.213867 10.1846 2.45117 13.7969 6.31445l266.118 331.197c6.91797 8.60938 19.5068 9.98242 28.1182 3.0625z" />
    <glyph glyph-name="007-cancel" unicode="&#xf106;" 
d="M284.285 191.998l221.856 -221.856c7.81152 -7.80957 7.81152 -20.4736 0 -28.2842c-3.90527 -3.90527 -9.02344 -5.85742 -14.1426 -5.85742s-10.2383 1.95215 -14.1426 5.85742l-221.857 221.856l-221.855 -221.856
c-3.90527 -3.90527 -9.02344 -5.85742 -14.1426 -5.85742s-10.2383 1.95215 -14.1426 5.85742c-7.81152 7.80957 -7.81152 20.4736 0 28.2842l221.856 221.857l-221.856 221.857c-7.81152 7.80957 -7.81055 20.4736 0 28.2842c7.80957 7.81152 20.4736 7.81152 28.2842 0
l221.856 -221.857l221.858 221.857c7.80957 7.81152 20.4736 7.81055 28.2842 0c7.81152 -7.80957 7.81152 -20.4736 0 -28.2842z" />
    <glyph glyph-name="004-trash" unicode="&#xf103;" 
d="M472 365c11.0459 0 20 -8.9541 20 -20s-8.9541 -20 -20 -20h-20.7119l-17.3193 -224.538c-0.808594 -10.4893 -9.57129 -18.4629 -19.9189 -18.4629c-0.516602 0 -1.03613 0.0195312 -1.55957 0.0595703c-11.0137 0.850586 -19.252 10.4668 -18.4033 21.4795
l17.082 221.462h-310.338l24.124 -312.758c1.94824 -20.6709 19.0459 -36.2422 39.8232 -36.2422h182.443c20.8486 0 37.9736 15.3975 39.834 35.8164c1.00293 11 10.7236 19.1035 21.7344 18.1006c11 -1.00293 19.1035 -10.7334 18.1006 -21.7344
c-3.75195 -41.1504 -38.002 -72.1826 -79.6689 -72.1826h-182.443c-20.0068 0 -39.1631 7.42871 -53.9395 20.9189c-14.7754 13.4902 -23.9141 31.8916 -25.7295 51.8164c-0.00878906 0.0927734 -0.0166016 0.185547 -0.0234375 0.277344l-24.374 315.987h-20.7119
c-11.0459 0 -20 8.9541 -20 20s8.9541 20 20 20h121v23c0 33.084 26.916 60 60 60h70c33.084 0 60 -26.916 60 -60v-23h121zM311 365v23c0 11.0283 -8.97168 20 -20 20h-70c-11.0283 0 -20 -8.97168 -20 -20v-23h110zM165.127 284.981
c11.0176 0.495117 20.3721 -8.07324 20.8545 -19.1074l10 -228.934c0.481445 -11.0361 -8.07324 -20.3721 -19.1084 -20.8545c-0.296875 -0.0136719 -0.59375 -0.0195312 -0.887695 -0.0195312c-10.6445 0 -19.4971 8.38965 -19.9668 19.1279l-10 228.933
c-0.481445 11.0361 8.07324 20.3721 19.1084 20.8545zM326.019 265.873c0.482422 11.0352 9.83789 19.5996 20.8545 19.1074c11.0352 -0.482422 19.5898 -9.81934 19.1084 -20.8545l-10 -228.933c-0.469727 -10.7383 -9.32324 -19.1279 -19.9668 -19.1279
c-0.294922 0 -0.59082 0.00683594 -0.887695 0.0195312c-11.0352 0.482422 -19.5898 9.81934 -19.1084 20.8545zM236 265c0 11.0459 8.9541 20 20 20s20 -8.9541 20 -20v-228.933c0 -11.0459 -8.9541 -20 -20 -20s-20 8.9541 -20 20v228.933z" />
    <glyph glyph-name="006-up-arrow" unicode="&#xf105;" 
d="M506.128 96.668c7.81836 -7.80176 7.83203 -20.4648 0.0292969 -28.2842c-3.90625 -3.91309 -9.03125 -5.87109 -14.1562 -5.87109c-5.1123 0 -10.2227 1.94629 -14.127 5.84277l-207.717 207.285c-7.8125 7.81348 -20.501 7.8125 -28.2988 0.0146484l-207.731 -207.299
c-7.81934 -7.80273 -20.4814 -7.78906 -28.2842 0.0292969c-7.80176 7.81836 -7.78906 20.4814 0.0292969 28.2832l207.717 207.285c23.3799 23.3799 61.4443 23.3789 84.8379 -0.015625z" />
    <glyph glyph-name="002-plus" unicode="&#xf101;" 
d="M492 212c11.0459 0 20 -8.9541 20 -20s-8.9541 -20 -20 -20h-216v-216c0 -11.0459 -8.9541 -20 -20 -20s-20 8.9541 -20 20v216h-216c-11.0459 0 -20 8.9541 -20 20s8.9541 20 20 20h216v216c0 11.0459 8.9541 20 20 20s20 -8.9541 20 -20v-216h216z" />
    <glyph glyph-name="005-down-arrow" unicode="&#xf104;" 
d="M506.157 315.614c7.80176 -7.81934 7.78906 -20.4824 -0.0292969 -28.2842l-207.717 -207.284c-11.6865 -11.6865 -27.0469 -17.5332 -42.4053 -17.5332c-15.3672 0 -30.7314 5.84863 -42.4326 17.5469l-207.701 207.271
c-7.81836 7.80176 -7.83105 20.4648 -0.0292969 28.2842c7.80469 7.81836 20.4658 7.83203 28.2852 0.0283203l207.715 -207.283c7.81348 -7.8125 20.5 -7.81348 28.2988 -0.015625l207.73 207.299c7.82031 7.80273 20.4814 7.79004 28.2852 -0.0283203z" />
    <glyph glyph-name="001-edit" unicode="&#xf100;" 
d="M481.996 417.994c19.3477 -19.3477 30.0039 -45.0732 30.0039 -72.4365c0 -27.3623 -10.6562 -53.0879 -30.0059 -72.4365l-215.98 -215.393c-7.81934 -7.79883 -20.4844 -7.78223 -28.2832 0.0390625c-7.80078 7.82129 -7.7832 20.4844 0.0371094 28.2842
l181.675 181.18l-88.2588 88.2578l-237.314 -237.316l101.852 -102.161c5.00293 -5.01855 6.97754 -12.3096 5.18945 -19.167c-1.78809 -6.85645 -7.07227 -12.2559 -13.8877 -14.1914l-161.558 -45.8916c-1.80273 -0.511719 -3.64062 -0.761719 -5.46289 -0.761719
c-5.21387 0 -10.3057 2.04102 -14.1055 5.82129c-5.12988 5.10059 -7.10254 12.5732 -5.16309 19.542l44.9678 161.557c0.923828 3.31934 2.68848 6.34277 5.125 8.7793l286.295 286.296c19.3486 19.3486 45.0752 30.0049 72.4375 30.0049
c27.3633 0 53.0889 -10.6562 72.4375 -30.0059zM143.395 11.8418l-68.083 68.29l-26.4844 -95.1514zM453.73 301.425c11.7744 11.7744 18.2695 27.4541 18.2695 44.1328c0 16.6797 -6.49512 32.3594 -18.2891 44.1523c-11.7939 11.7949 -27.4727 18.29 -44.1523 18.29
c-16.6787 0 -32.3584 -6.49512 -44.1514 -18.2891l-5.93848 -5.9375l88.2959 -88.2979z" />
  </font>
</defs></svg>
